<?xml version="1.0" encoding="utf-8"?>
<!-- Generator: Adobe Illustrator 22.0.0, SVG Export Plug-In . SVG Version: 6.00 Build 0)  -->
<svg version="1.1" class="navigation_m__bg" xmlns="http://www.w3.org/2000/svg" xmlns:xlink="http://www.w3.org/1999/xlink" x="0px" y="0px"
	 viewBox="0 0 1290.1 870" style="enable-background:new 0 0 1290.1 870;" xml:space="preserve">
<style type="text/css">
	.st00{fill:#EFF9FE;}
	.st111{fill:#61B4DC;}
	.st2{fill:#D4EFFC;}
	.st333{fill:#FAA22F;}
	.st444{fill:#4EA4CE;}
	.st5{fill:#0577AB;}
	.st6{fill:#87D6F8;}
	.st7{fill:#298DBF;}
	.st8{fill:#005C84;}
</style>
<g>
	<g>
		<g>
			<polygon class="st111" points="338.6,647 520.8,214.6 592.1,135.7 652.6,36.9 668.7,3 683.8,57.8 690.2,65.2 694.9,50.4 
				786.2,146.8 845.8,307.9 911.8,378 951.5,647 			"/>
		</g>
		<path class="st2" d="M1202.3,506.6h-16.5c-5.1,0-9.4-4.1-9.4-9.3c0-0.1,0-0.1,0-0.2v0c0-5.2-4.2-9.4-9.4-9.4h-102.4
			c-5.2,0-9.4,4.2-9.4,9.4v0c0,5.2,4.2,9.4,9.4,9.4l0,0c7.3,0.1,10,1.8,11.5,4.4c1.4,2.6,1.5,5.7,0.3,8.4c-1.2,2.5-3.3,5.2-7.4,5.2
			l-24.7,0.2c-5.2,0-9.4,4.2-9.4,9.4l0,0c0,5.2,4.2,9.4,9.4,9.4h100.4c5.2,0,9.4-4.2,9.4-9.4l0,0c0-1-0.2-2-0.5-2.9
			c-0.9-2.9,1.2-5.9,4.2-5.9h44.4c5.2,0,9.4-4.2,9.4-9.4l0,0C1211.7,510.9,1207.4,506.6,1202.3,506.6z"/>
		<circle class="st333" cx="1064.9" cy="481.1" r="42.7"/>
		<g>
			<polygon class="st444" points="586.9,740 780.7,535.8 856.6,498.5 920.9,451.9 946.6,466.7 954.1,461.8 960.9,465.2 966.8,458.8 
				1063,503.8 1126.5,579.9 1196.7,612.9 1208.2,647.5 			"/>
		</g>
		<path class="st5" d="M1198.9,644.6h-76.5H950.5h-76.5c7.2,5.1,30.9,5,47.4,9.6c16.6,4.7,12.1,20.1,6.3,25.6
			c-5.8,5.5-12.3,9.8-20.1,12.3c-7.8,2.4-16.4,4-12.4,6.8c3.9,2.7,17,2.6,41.1,12s52.1,25.2,51.1,46.2c-1,21.1-30,22.7-42.4,22.8
			h76.5h100.8h76.5c33.3,0,60.4-30.3,60.4-67.6v0C1259.2,674.9,1232.2,644.6,1198.9,644.6z"/>
		<polygon class="st6" points="854.6,506.3 848.8,540.9 893.7,494.6 875.8,540.9 917.6,500.3 920.9,452 896.1,467.4 		"/>
		<polygon class="st6" points="944.9,469.2 949.3,482.1 952.4,463.4 		"/>
		<polygon class="st6" points="959.3,467.5 958.6,494 966.9,459 		"/>
		<polygon class="st6" points="949.8,494 942.5,508.5 981.8,551.1 971.6,520.6 958.6,494 		"/>
		<polygon class="st6" points="779.2,549.8 821.7,525.4 805,560.9 805,544.2 755.6,580.7 		"/>
		<polygon class="st6" points="631.2,91.1 637.7,78.8 651.6,63.4 662.2,50.2 667.8,71.9 668.7,0 653.3,23 		"/>
		<polygon class="st6" points="688.6,81.9 687.9,144.1 694.9,62.5 		"/>
		<polygon class="st7" points="771.2,631.9 861.1,625.1 896.2,615.2 918.4,605.7 999.3,645 744.3,644.6 		"/>
		<path class="st5" d="M598.6,646.2c0,0,27.8-25.9,43.9-23.1c16.1,2.7,9-10,28.6-10c19.6,0,39.8,18.6,60.2,15.1
			c20.4-3.4,26.3-17.6,49.4-17.6c23.1,0,65.7,36.4,89.3,35.4S598.6,646.2,598.6,646.2z"/>
		<path class="st5" d="M876.4,645.1c0,0,27.8-25.9,43.9-23.1s9-10,28.6-10c19.6,0,39.8,18.6,60.2,15.1c20.4-3.4,26.3-17.6,49.4-17.6
			c23.1,0,111.6,35.5,111.6,35.5L876.4,645.1z"/>
		<path class="st8" d="M898.9,644.7c0,0,45.3-10,55.5-13s40.3-0.7,59.8,0c19.4,0.7,40.1,3,50.1,0s20.9,4.3,30.5,5.7
			c9.5,1.3,53.1,7.4,53.1,7.4H898.9z"/>
		<g>
			<polygon class="st8" points="1061.8,625.2 1049.8,648.3 1213.5,648.3 1204.3,618.6 1196.6,626.7 1078.6,630.2 			"/>
			<g>
				<polygon class="st8" points="1167.1,638.1 1209.7,638.1 1187.8,608.5 				"/>
				<polygon class="st8" points="1157.7,638.1 1200.2,638.1 1178.3,602.2 				"/>
				<polygon class="st8" points="1146,648.3 1188.6,648.3 1165.8,602.2 				"/>
			</g>
			<g>
				<polygon class="st8" points="1135.3,638.1 1177.8,638.1 1155.9,608.5 				"/>
				<polygon class="st8" points="1125.8,638.1 1168.4,638.1 1146.5,602.2 				"/>
				<polygon class="st8" points="1114.1,648.3 1156.7,648.3 1134.8,608.8 				"/>
			</g>
			<g>
				<polygon class="st8" points="1104.9,637.1 1141.7,637.1 1122.7,611.6 				"/>
				<polygon class="st8" points="1096.7,637.1 1133.5,637.1 1114.6,606.1 				"/>
				<polygon class="st8" points="1086.6,646.5 1123.4,646.5 1104.5,611.8 				"/>
			</g>
			<g>
				<polygon class="st8" points="1073.3,631.4 1110.1,631.4 1091.2,605.9 				"/>
				<polygon class="st8" points="1065.1,631.4 1101.9,631.4 1078.8,604.1 				"/>
				<polygon class="st8" points="1055,637.1 1091.8,637.1 1069.6,611.8 				"/>
			</g>
		</g>
		<path class="st8" d="M887.9,780l1.1,0c0,0,48.7,0,60.8-0.1H930c-3.3,0-13.8,0-13.8,0h-266H392.1"/>
		<path class="st8" d="M392.1,779.9l258.2,0c0,0,0,0,0,0"/>
		<path class="st8" d="M650.3,779.9h266c0,0,0,0,0,0L650.3,779.9C650.3,779.9,650.3,779.9,650.3,779.9z"/>
		<path class="st5" d="M1204.5,780H260.8c-35.4,0-64.4-29-64.4-64.4V710c0-35.4,29-64.4,64.4-64.4h943.6c35.4,0,64.4,29,64.4,64.4
			v5.6C1268.9,751,1239.9,780,1204.5,780z"/>
		<path class="st8" d="M341.9,647c0,0,45.3-13.1,55.5-17s40.3-0.9,59.8,0c19.4,0.9,40.1,3.9,50.1,0s20.9,5.6,30.5,7.4
			s53.1,9.6,53.1,9.6H341.9z"/>
		<g>
			<g>
				<polygon class="st8" points="303.7,639 298.2,647 372.8,647 368.6,636.7 365.1,639.5 311.3,640.7 				"/>
				<g>
					<polygon class="st8" points="351.6,643.4 371,643.4 361.1,633.2 					"/>
					<polygon class="st8" points="347.3,643.4 366.7,643.4 356.7,631 					"/>
					<polygon class="st8" points="342,647 361.4,647 351.1,631 					"/>
				</g>
				<g>
					<polygon class="st8" points="337.1,643.4 356.5,643.4 346.6,633.2 					"/>
					<polygon class="st8" points="332.8,643.4 352.2,643.4 342.2,631 					"/>
					<polygon class="st8" points="327.5,647 346.9,647 336.9,633.3 					"/>
				</g>
				<g>
					<polygon class="st8" points="323.3,643.1 340.1,643.1 331.4,634.2 					"/>
					<polygon class="st8" points="319.6,643.1 336.3,643.1 327.7,632.3 					"/>
					<polygon class="st8" points="315,646.4 331.7,646.4 323.1,634.3 					"/>
				</g>
				<g>
					<polygon class="st8" points="308.9,641.1 325.7,641.1 317,632.3 					"/>
					<polygon class="st8" points="305.2,641.1 321.9,641.1 311.4,631.6 					"/>
					<polygon class="st8" points="300.6,643.1 317.3,643.1 307.2,634.3 					"/>
				</g>
			</g>
			<g>
				<polygon class="st8" points="356.7,638 351.2,646 425.8,646 421.6,635.7 418.1,638.5 364.3,639.7 				"/>
				<g>
					<polygon class="st8" points="404.6,642.4 424,642.4 414.1,632.2 					"/>
					<polygon class="st8" points="400.3,642.4 419.7,642.4 409.7,630 					"/>
					<polygon class="st8" points="395,646 414.4,646 404.1,630 					"/>
				</g>
				<g>
					<polygon class="st8" points="390.1,642.4 409.5,642.4 399.6,632.2 					"/>
					<polygon class="st8" points="385.8,642.4 405.2,642.4 395.2,630 					"/>
					<polygon class="st8" points="380.5,646 399.9,646 389.9,632.3 					"/>
				</g>
				<g>
					<polygon class="st8" points="376.3,642.1 393.1,642.1 384.4,633.2 					"/>
					<polygon class="st8" points="372.6,642.1 389.3,642.1 380.7,631.3 					"/>
					<polygon class="st8" points="368,645.4 384.7,645.4 376.1,633.3 					"/>
				</g>
				<g>
					<polygon class="st8" points="361.9,640.1 378.7,640.1 370,631.3 					"/>
					<polygon class="st8" points="358.2,640.1 374.9,640.1 364.4,630.6 					"/>
					<polygon class="st8" points="353.6,642.1 370.3,642.1 360.2,633.3 					"/>
				</g>
			</g>
			<g>
				<polygon class="st8" points="261.3,641 257.2,647 313.2,647 310,639.3 307.4,641.4 267.1,642.3 				"/>
				<g>
					<polygon class="st8" points="297.3,644.3 311.8,644.3 304.4,636.6 					"/>
					<polygon class="st8" points="294.1,644.3 308.6,644.3 301.1,635 					"/>
					<polygon class="st8" points="290.1,647 304.6,647 296.8,635 					"/>
				</g>
				<g>
					<polygon class="st8" points="286.4,644.3 301,644.3 293.5,636.6 					"/>
					<polygon class="st8" points="283.2,644.3 297.7,644.3 290.2,635 					"/>
					<polygon class="st8" points="279.2,647 293.7,647 286.3,636.7 					"/>
				</g>
				<g>
					<polygon class="st8" points="276,644.1 288.6,644.1 282.1,637.4 					"/>
					<polygon class="st8" points="273.2,644.1 285.8,644.1 279.3,636 					"/>
					<polygon class="st8" points="269.8,646.5 282.4,646.5 275.9,637.5 					"/>
				</g>
				<g>
					<polygon class="st8" points="265.2,642.6 277.8,642.6 271.3,635.9 					"/>
					<polygon class="st8" points="262.4,642.6 275,642.6 267.1,635.5 					"/>
					<polygon class="st8" points="259,644.1 271.6,644.1 264,637.5 					"/>
				</g>
			</g>
		</g>
	</g>
</g>
</svg>
